<?xml version="1.0" encoding="utf-8"?>
<!-- Generator: Adobe Illustrator 18.0.0, SVG Export Plug-In . SVG Version: 6.00 Build 0)  -->
<!DOCTYPE svg PUBLIC "-//W3C//DTD SVG 1.1//EN" "http://www.w3.org/Graphics/SVG/1.1/DTD/svg11.dtd">
<svg version="1.1" id="Ebene_1" xmlns="http://www.w3.org/2000/svg" xmlns:xlink="http://www.w3.org/1999/xlink" x="0px" y="0px"
	 viewBox="0 0 1280 1024" enable-background="new 0 0 1280 1024" xml:space="preserve">
<g>
	<path fill="#1D1D1B" d="M470.4,332.8H249.6c-32,0-57.6,25.6-57.6,57.6v246.4c0,32,25.6,57.6,57.6,57.6h220.8v-9.6L675.2,832V192
		L470.4,342.4V332.8z M224,636.8V390.4c0-12.8,12.8-25.6,25.6-25.6h188.8v38.4v217.6v41.6H249.6C236.8,662.4,224,649.6,224,636.8z
		 M643.2,256v512L470.4,643.8V380.2L643.2,256z"/>
	<polygon fill="#1D1D1B" points="1072,496 960,496 960,384 928,384 928,496 816,496 816,528 928,528 928,640 960,640 960,528 
		1072,528 	"/>
</g>
</svg>
