<?xml version="1.0" encoding="utf-8"?>
<!-- Generator: Adobe Illustrator 18.0.0, SVG Export Plug-In . SVG Version: 6.00 Build 0)  -->
<!DOCTYPE svg PUBLIC "-//W3C//DTD SVG 1.1//EN" "http://www.w3.org/Graphics/SVG/1.1/DTD/svg11.dtd">
<svg version="1.1" id="Ebene_1" xmlns="http://www.w3.org/2000/svg" xmlns:xlink="http://www.w3.org/1999/xlink" x="0px" y="0px"
	 viewBox="0 0 1280 1024" enable-background="new 0 0 1280 1024" xml:space="preserve">
<g>
	<polygon fill="#1D1D1B" points="684.8,233.6 659.2,214.4 393.6,512 659.2,809.6 684.8,790.4 438.4,512 	"/>
	<polygon fill="#1D1D1B" points="876.8,233.6 851.2,214.4 585.6,512 851.2,809.6 876.8,790.4 630.4,512 	"/>
</g>
</svg>
